exercise one
…
tibble [1,846 × 3] (S3: tbl_df/tbl/data.frame)
 $ dataset: chr [1:1846] "dino" "dino" "dino" "dino" ...
 $ x      : num [1:1846] 55.4 51.5 46.2 42.8 40.8 ...
 $ y      : num [1:1846] 97.2 96 94.5 91.4 88.3 ...
 - attr(*, "spec")=
  .. cols(
  ..   dataset = col_character(),
  ..   x = col_double(),
  ..   y = col_double()
  .. )

datasaurus_dozen

# A tibble: 1,846 × 3
   dataset     x     y
   <chr>   <dbl> <dbl>
 1 dino     55.4  97.2
 2 dino     51.5  96.0
 3 dino     46.2  94.5
 4 dino     42.8  91.4
 5 dino     40.8  88.3
 6 dino     38.7  84.9
 7 dino     35.6  79.9
 8 dino     33.1  77.6
 9 dino     29.0  74.5
10 dino     26.2  71.4
# ℹ 1,836 more rows
…
